Visualización de datos con ggplot2
…
count: false
 
Recuerda los pasos básicos
.panel1-chunk_1-auto[

```r
data   #<<
```
]
 
.panel2-chunk_1-auto[

```
# A tibble: 1,704 × 6
   country     continent  year lifeExp      pop gdpPercap
   <fct>       <fct>     <int>   <dbl>    <int>     <dbl>
 1 Afghanistan Asia       1952    28.8  8425333      779.
 2 Afghanistan Asia       1957    30.3  9240934      821.
 3 Afghanistan Asia       1962    32.0 10267083      853.
 4 Afghanistan Asia       1967    34.0 11537966      836.
 5 Afghanistan Asia       1972    36.1 13079460      740.
 6 Afghanistan Asia       1977    38.4 14880372      786.
 7 Afghanistan Asia       1982    39.9 12881816      978.
 8 Afghanistan Asia       1987    40.8 13867957      852.
 9 Afghanistan Asia       1992    41.7 16317921      649.
10 Afghanistan Asia       1997    41.8 22227415      635.
# … with 1,694 more rows
```
…
count: false
 
Ahora probemos con gráficos bivariados
.panel1-chunk_3-auto[

```r
data   #<<
```
]
 
.panel2-chunk_3-auto[

```
# A tibble: 1,704 × 6
   country     continent  year lifeExp      pop gdpPercap
   <fct>       <fct>     <int>   <dbl>    <int>     <dbl>
 1 Afghanistan Asia       1952    28.8  8425333      779.
 2 Afghanistan Asia       1957    30.3  9240934      821.
 3 Afghanistan Asia       1962    32.0 10267083      853.
 4 Afghanistan Asia       1967    34.0 11537966      836.
 5 Afghanistan Asia       1972    36.1 13079460      740.
 6 Afghanistan Asia       1977    38.4 14880372      786.
 7 Afghanistan Asia       1982    39.9 12881816      978.
 8 Afghanistan Asia       1987    40.8 13867957      852.
 9 Afghanistan Asia       1992    41.7 16317921      649.
10 Afghanistan Asia       1997    41.8 22227415      635.
# … with 1,694 more rows
```
…
count: false
 
Mezclemos otras funciones del tidyverse y más de un gráfico
.panel1-chunk_4-auto[

```r
data   #<<
```
]
 
.panel2-chunk_4-auto[

```
# A tibble: 1,704 × 6
   country     continent  year lifeExp      pop gdpPercap
   <fct>       <fct>     <int>   <dbl>    <int>     <dbl>
 1 Afghanistan Asia       1952    28.8  8425333      779.
 2 Afghanistan Asia       1957    30.3  9240934      821.
 3 Afghanistan Asia       1962    32.0 10267083      853.
 4 Afghanistan Asia       1967    34.0 11537966      836.
 5 Afghanistan Asia       1972    36.1 13079460      740.
 6 Afghanistan Asia       1977    38.4 14880372      786.
 7 Afghanistan Asia       1982    39.9 12881816      978.
 8 Afghanistan Asia       1987    40.8 13867957      852.
 9 Afghanistan Asia       1992    41.7 16317921      649.
10 Afghanistan Asia       1997    41.8 22227415      635.
# … with 1,694 more rows
```
…
count: false
 
Y el gráfico de barras?
.panel1-chunk_7-auto[

```r
data   #<<
```
]
 
.panel2-chunk_7-auto[

```
# A tibble: 1,704 × 6
   country     continent  year lifeExp      pop gdpPercap
   <fct>       <fct>     <int>   <dbl>    <int>     <dbl>
 1 Afghanistan Asia       1952    28.8  8425333      779.
 2 Afghanistan Asia       1957    30.3  9240934      821.
 3 Afghanistan Asia       1962    32.0 10267083      853.
 4 Afghanistan Asia       1967    34.0 11537966      836.
 5 Afghanistan Asia       1972    36.1 13079460      740.
 6 Afghanistan Asia       1977    38.4 14880372      786.
 7 Afghanistan Asia       1982    39.9 12881816      978.
 8 Afghanistan Asia       1987    40.8 13867957      852.
 9 Afghanistan Asia       1992    41.7 16317921      649.
10 Afghanistan Asia       1997    41.8 22227415      635.
# … with 1,694 more rows
```
…
Y el gráfico de barras?
.panel1-chunk_7-auto[

```r
data %>%
  select(country,continent)   #<<
```
]
 
.panel2-chunk_7-auto[

```
# A tibble: 1,704 × 2
   country     continent
   <fct>       <fct>    
 1 Afghanistan Asia     
 2 Afghanistan Asia     
 3 Afghanistan Asia     
 4 Afghanistan Asia     
 5 Afghanistan Asia     
 6 Afghanistan Asia     
 7 Afghanistan Asia     
 8 Afghanistan Asia     
 9 Afghanistan Asia     
10 Afghanistan Asia     
# … with 1,694 more rows
```
…
Y el gráfico de barras?
.panel1-chunk_7-auto[

```r
data %>%
  select(country,continent) %>%
  group_by(continent)   #<<
```
]
 
.panel2-chunk_7-auto[

```
# A tibble: 1,704 × 2
# Groups:   continent [5]
   country     continent
   <fct>       <fct>    
 1 Afghanistan Asia     
 2 Afghanistan Asia     
 3 Afghanistan Asia     
 4 Afghanistan Asia     
 5 Afghanistan Asia     
 6 Afghanistan Asia     
 7 Afghanistan Asia     
 8 Afghanistan Asia     
 9 Afghanistan Asia     
10 Afghanistan Asia     
# … with 1,694 more rows
```
…
Y el gráfico de barras?
.panel1-chunk_7-auto[

```r
data %>%
  select(country,continent) %>%
  group_by(continent) %>%
  filter(!duplicated(country))   #<<
```
]
 
.panel2-chunk_7-auto[

```
# A tibble: 142 × 2
# Groups:   continent [5]
   country     continent
   <fct>       <fct>    
 1 Afghanistan Asia     
 2 Albania     Europe   
 3 Algeria     Africa   
 4 Angola      Africa   
 5 Argentina   Americas 
 6 Australia   Oceania  
 7 Austria     Europe   
 8 Bahrain     Asia     
 9 Bangladesh  Asia     
10 Belgium     Europe   
# … with 132 more rows
```
…
```r
data %>%
  select(country,continent) %>%
  group_by(continent) %>%
  filter(!duplicated(country)) %>%
  ungroup()   #<<
```
]
 
.panel2-chunk_7-auto[

```
# A tibble: 142 × 2
   country     continent
   <fct>       <fct>    
 1 Afghanistan Asia     
 2 Albania     Europe   
 3 Algeria     Africa   
 4 Angola      Africa   
 5 Argentina   Americas 
 6 Australia   Oceania  
 7 Austria     Europe   
 8 Bahrain     Asia     
 9 Bangladesh  Asia     
10 Belgium     Europe   
# … with 132 more rows
```
…
count: false
 
Y el gráfico de barras apiladas?
.panel1-chunk_8-auto[

```r
data   #<<
```
]
 
.panel2-chunk_8-auto[

```
# A tibble: 1,704 × 6
   country     continent  year lifeExp      pop gdpPercap
   <fct>       <fct>     <int>   <dbl>    <int>     <dbl>
 1 Afghanistan Asia       1952    28.8  8425333      779.
 2 Afghanistan Asia       1957    30.3  9240934      821.
 3 Afghanistan Asia       1962    32.0 10267083      853.
 4 Afghanistan Asia       1967    34.0 11537966      836.
 5 Afghanistan Asia       1972    36.1 13079460      740.
 6 Afghanistan Asia       1977    38.4 14880372      786.
 7 Afghanistan Asia       1982    39.9 12881816      978.
 8 Afghanistan Asia       1987    40.8 13867957      852.
 9 Afghanistan Asia       1992    41.7 16317921      649.
10 Afghanistan Asia       1997    41.8 22227415      635.
# … with 1,694 more rows
```
…
Y el gráfico de barras apiladas?
.panel1-chunk_8-auto[

```r
data %>%
  select(-4, -5)   #<<
```
]
 
.panel2-chunk_8-auto[

```
# A tibble: 1,704 × 4
   country     continent  year gdpPercap
   <fct>       <fct>     <int>     <dbl>
 1 Afghanistan Asia       1952      779.
 2 Afghanistan Asia       1957      821.
 3 Afghanistan Asia       1962      853.
 4 Afghanistan Asia       1967      836.
 5 Afghanistan Asia       1972      740.
 6 Afghanistan Asia       1977      786.
 7 Afghanistan Asia       1982      978.
 8 Afghanistan Asia       1987      852.
 9 Afghanistan Asia       1992      649.
10 Afghanistan Asia       1997      635.
# … with 1,694 more rows
```
…
```r
data %>%
  select(-4, -5) %>%
  mutate(gdp_cat=case_when(  #<<
              gdpPercap<4000~ "Bajo GDPpc",  #<<
              TRUE~ "Alto GDPpc"))   #<<
```
]
 
.panel2-chunk_8-auto[

```
# A tibble: 1,704 × 5
   country     continent  year gdpPercap gdp_cat   
   <fct>       <fct>     <int>     <dbl> <chr>     
 1 Afghanistan Asia       1952      779. Bajo GDPpc
 2 Afghanistan Asia       1957      821. Bajo GDPpc
 3 Afghanistan Asia       1962      853. Bajo GDPpc
 4 Afghanistan Asia       1967      836. Bajo GDPpc
 5 Afghanistan Asia       1972      740. Bajo GDPpc
 6 Afghanistan Asia       1977      786. Bajo GDPpc
 7 Afghanistan Asia       1982      978. Bajo GDPpc
 8 Afghanistan Asia       1987      852. Bajo GDPpc
 9 Afghanistan Asia       1992      649. Bajo GDPpc
10 Afghanistan Asia       1997      635. Bajo GDPpc
# … with 1,694 more rows
```
…
```r
data %>%
  select(-4, -5) %>%
  mutate(gdp_cat=case_when(
              gdpPercap<4000~ "Bajo GDPpc",
              TRUE~ "Alto GDPpc")) %>%
  filter(year==2007)   #<<
```
]
 
.panel2-chunk_8-auto[

```
# A tibble: 142 × 5
   country     continent  year gdpPercap gdp_cat   
   <fct>       <fct>     <int>     <dbl> <chr>     
 1 Afghanistan Asia       2007      975. Bajo GDPpc
 2 Albania     Europe     2007     5937. Alto GDPpc
 3 Algeria     Africa     2007     6223. Alto GDPpc
 4 Angola      Africa     2007     4797. Alto GDPpc
 5 Argentina   Americas   2007    12779. Alto GDPpc
 6 Australia   Oceania    2007    34435. Alto GDPpc
 7 Austria     Europe     2007    36126. Alto GDPpc
 8 Bahrain     Asia       2007    29796. Alto GDPpc
 9 Bangladesh  Asia       2007     1391. Bajo GDPpc
10 Belgium     Europe     2007    33693. Alto GDPpc
# … with 132 more rows
```
…
```r
data %>%  #<<
  select(-4, -5) %>%  #<<
  mutate(gdp_cat=case_when(  #<<
    gdpPercap<4000~ "Bajo GDPpc",  #<<
    TRUE~ "Alto GDPpc")) %>%  #<<
  filter(year==2007)   #<<
```
]
 
.panel2-chunk_9-user[

```
# A tibble: 142 × 5
   country     continent  year gdpPercap gdp_cat   
   <fct>       <fct>     <int>     <dbl> <chr>     
 1 Afghanistan Asia       2007      975. Bajo GDPpc
 2 Albania     Europe     2007     5937. Alto GDPpc
 3 Algeria     Africa     2007     6223. Alto GDPpc
 4 Angola      Africa     2007     4797. Alto GDPpc
 5 Argentina   Americas   2007    12779. Alto GDPpc
 6 Australia   Oceania    2007    34435. Alto GDPpc
 7 Austria     Europe     2007    36126. Alto GDPpc
 8 Bahrain     Asia       2007    29796. Alto GDPpc
 9 Bangladesh  Asia       2007     1391. Bajo GDPpc
10 Belgium     Europe     2007    33693. Alto GDPpc
# … with 132 more rows
```
…
